…
Now do iteration. Going straight to a map, not doing the intermediate
step of creating a for loop. In this case map takes pair of input
columns (hom\_unsolved and hom\_total), outputs a column (prop\_tests)
which is added to the dataframe. Pull prop\_tests column to check it.

``` r
aggregate_df %>% 
  mutate(
    prop_tests = map2(.x = hom_unsolved, .y = hom_total, ~prop.test(x = .x, n = .y))
  )
```

    ## # A tibble: 50 x 4
    ##    city_state     hom_total hom_unsolved prop_tests
    ##    <chr>              <int>        <int> <list>    
    ##  1 Albuquerque_NM       378          146 <htest>   
    ##  2 Atlanta_GA           973          373 <htest>   
    ##  3 Baltimore_MD        2827         1825 <htest>   
    ##  4 Baton Rouge_LA       424          196 <htest>   
    ##  5 Birmingham_AL        800          347 <htest>   
    ##  6 Boston_MA            614          310 <htest>   
    ##  7 Buffalo_NY           521          319 <htest>   
    ##  8 Charlotte_NC         687          206 <htest>   
    ##  9 Chicago_IL          5535         4073 <htest>   
    ## 10 Cincinnati_OH        694          309 <htest>   
    ## # … with 40 more rows
…
